{
    "approvalCheckoutSummary": {
        "rows": [
            {
                "inHomeDate": "12/01/2015",
                "pendingLocations": "10",
                "optOutLocations": "7",
                "optInLocations": "13",
                "approvedLocations": "11",
                "approvedQty": "250",
                "costPerPiece": "$0.0",
                "total": "$0.0"
            }
        ]
    },
    "optInLocations": [
        {
            "storeId": "GA-005",
            "storeName": "R3K INC.",
            "city": "Johns Creek",
            "state": "GA",
            "qty": "100",
            "cost": "$250.00"
        },
        {
            "storeId": "IN-004",
            "storeName": "F&J Pizza IV LLC",
            "city": "Fishers",
            "state": "IN",
            "qty": "1,000",
            "cost": "$2,500.00"
        },
        {
            "storeId": "IN-003",
            "storeName": "CHAPARREL VENTURES, LLC",
            "city": "Indianapolis",
            "state": "IN",
            "qty": "5,000",
            "cost": "$12,500.00"
        },
        {
            "storeId": "KY-002",
            "storeName": "DERBY DREAMS 2, INC",
            "city": "Ft Wright",
            "state": "KY",
            "qty": "5,00",
            "cost": "$1,250.00"
        },
        {
            "storeId": "GA-017",
            "storeName": "SANDY SPRINGS PIZZA, LLC",
            "city": "Sandy Springs",
            "state": "GA",
            "qty": "5,000",
            "cost": "$12,500.00"
        },
        {
            "storeId": "GA-018",
            "storeName": "McGinnis Ferry Pizza, LLC",
            "city": "North Alpharetta",
            "state": "GA",
            "qty": "1,000",
            "cost": "$2,500.00"
        },
        {
            "storeId": "IN-002",
            "storeName": "BS II Management Inc.",
            "city": "Greenwood",
            "state": "IN",
            "qty": "1,000",
            "cost": "$2,500.00"
        },
        {
            "storeId": "KY-006",
            "storeName": "TROPHY PIZZA NO.2, LLC.",
            "city": "Lexington",
            "state": "KY",
            "qty": "1,000",
            "cost": "$2,500.00"
        },
        {
            "storeId": "GA-014",
            "storeName": "Windermere Pizza, LLC",
            "city": "Cumming",
            "state": "GA",
            "qty": "1,000",
            "cost": "$000.00"
        },
        {
            "storeId": "GA-018",
            "storeName": "McGinnis Ferry Pizza, LLC",
            "city": "North Alpharetta",
            "state": "GA",
            "qty": "1,000",
            "cost": "$2,500.00"
        },
        {
            "storeId": "GA-008",
            "storeName": "DKS FRANCHISES, LLC",
            "city": "Snellville",
            "state": "GA",
            "qty": "100",
            "cost": "$2,50.00"
        },
        {
            "storeId": "GA-009",
            "storeName": "KRAKOW ENTERPRISES LLC",
            "city": "Dunwoody-Sandy Springs",
            "state": "GA",
            "qty": "2,000",
            "cost": "$5,000.00"
        },
        {
            "storeId": "IN-001",
            "storeName": "F&J Pizza III LLC",
            "city": "Carmel",
            "state": "IN",
            "qty": "1,000",
            "cost": "$2,500.00"
        }
    ],
    "pendingApproval": [
        {
            "storeId": "IL-002",
            "storeName": "FORZA PARTNERS, LTD",
            "city": "Wheeling/Buffalo Grove",
            "state": "IL",
            "qty": "100",
            "cost": "$250.00"
        },
        {
            "storeId": "FL-016",
            "storeName": "J.P.-EIGHT, LLC",
            "city": "Estero",
            "state": "FL",
            "qty": "1,000",
            "cost": "$2,500.00"
        },
        {
            "storeId": "FL-027",
            "storeName": "Leaders Pizza, LLC",
            "city": "Orlando",
            "state": "FL",
            "qty": "5,000",
            "cost": "$12,500.00"
        },
        {
            "storeId": "FL-012",
            "storeName": "BOCA GRANDE PIZZA LLC",
            "city": "Sarasota",
            "state": "FL",
            "qty": "5,00",
            "cost": "$1,250.00"
        },
        {
            "storeId": "IL-008",
            "storeName": "WIESE ENTERPRISES, LLC",
            "city": "Champaign",
            "state": "IL",
            "qty": "5,000",
            "cost": "$12,500.00"
        },
        {
            "storeId": "IL-006",
            "storeName": "JT SETTERS, LLC",
            "city": "Arlington Heights",
            "state": "IL",
            "qty": "1,000",
            "cost": "$2,500.00"
        },
        {
            "storeId": "IL-003",
            "storeName": "3 D'S MOONDANCE, LLC",
            "city": "Schaumburg",
            "state": "IL",
            "qty": "1,000",
            "cost": "$2,500.00"
        },
        {
            "storeId": "IL-016",
            "storeName": "MJG PIZZA AURORA, INC.",
            "city": "Aurora",
            "state": "IL",
            "qty": "1,000",
            "cost": "$2,500.00"
        },
        {
            "storeId": "IL-015",
            "storeName": "PIZZA KINGS OF CHICAGO COMPANY",
            "city": "Chicago",
            "state": "IL",
            "qty": "1,000",
            "cost": "$000.00"
        },
        {
            "storeId": "IL-011",
            "storeName": "PRISM VENTURES LLC",
            "city": "Chicago",
            "state": "IL",
            "qty": "1,000",
            "cost": "$2,500.00"
        }
    ],
    "approvedLocations": [
        {
            "storeId": "MI-020",
            "storeName": "YAMARINO, INC.",
            "city": "Hamtramck",
            "state": "MI",
            "qty": "1,000",
            "cost": "$2,500.00",
            "approved": "00/00/00"
        },
        {
            "storeId": "OH-017",
            "storeName": "SANDEAVER, INC.",
            "city": "Montgomery",
            "state": "OH",
            "qty": "1,000",
            "cost": "$2,500.00",
            "approved": "00/00/00"
        },
        {
            "storeId": "MI-134",
            "storeName": "Holland Store Inc.",
            "city": "Holland",
            "state": "MI",
            "qty": "1,000",
            "cost": "$2,500.00",
            "approved": "00/00/00"
        },
        {
            "storeId": "MI-098",
            "storeName": "D.J.T. One, Inc.",
            "city": "Lake Orion",
            "state": "MI",
            "qty": "1,000",
            "cost": "$2,500.00",
            "approved": "00/00/00"
        },
        {
            "storeId": "TN-011",
            "storeName": "NUI IKE II, LLC",
            "city": "Franklin",
            "state": "TN",
            "qty": "1,000",
            "cost": "$2,500.00",
            "approved": "00/00/00"
        },
        {
            "storeId": "TN-012",
            "storeName": "J & S WEINAND, INC.",
            "city": "Spring Hill",
            "state": "TN",
            "qty": "1,000",
            "cost": "$2,500.00",
            "approved": "00/00/00"
        },
        {
            "storeId": "GA-005",
            "storeName": "R3K INC.",
            "city": "Johns Creek",
            "state": "GA",
            "qty": "1,000",
            "cost": "$2,500.00",
            "approved": "00/00/00"
        },
        {
            "storeId": "MI-069",
            "storeName": "SONNY T'S INC",
            "city": "Algonac",
            "state": "MI",
            "qty": "1,000",
            "cost": "$2,500.00",
            "approved": "00/00/00"
        },
        {
            "storeId": "IL-012",
            "storeName": "TRIPLE J PIZZA INC.",
            "city": "Joliet",
            "state": "IL",
            "qty": "100",
            "cost": "$2,50.00"
        },
        {
            "storeId": "IL-013",
            "storeName": "MIWI LLC",
            "city": "Wheaton",
            "state": "IL",
            "qty": "2,000",
            "cost": "$5,000.00"
        },
        {
            "storeId": "IL-007",
            "storeName": "MT PIZZA VENTURES, INC.",
            "city": "Naperville-North",
            "state": "IL",
            "qty": "1,000",
            "cost": "$2,500.00"
        }
    ],
    "optOutLocations": [
        {
            "storeId": "TN-036",
            "storeName": "Spartan Oak Ridge LLC",
            "city": "Oak Ridge",
            "state": "TN",
            "qty": "1,000",
            "cost": "$2,500.00",
            "approved": "00/00/00"
        },
        {
            "storeId": "MI-169",
            "storeName": "CHERRY BEACH PIZZA, INC.",
            "city": "Marine City",
            "state": "MI",
            "qty": "1,000",
            "cost": "$000.00",
            "approved": "00/00/00"
        },
        {
            "storeId": "AL-002",
            "storeName": "PIZZA FAMILY LLC",
            "city": "Hoover",
            "state": "AL",
            "qty": "1,000",
            "cost": "$000.00",
            "approved": "00/00/00"
        },
        {
            "storeId": "OH-035",
            "storeName": "PIE KINGZ 3, INC.",
            "city": "Parma",
            "state": "OH",
            "qty": "1,000",
            "cost": "$000.00",
            "approved": "00/00/00"
        },
        {
            "storeId": "GA-018",
            "storeName": "McGinnis Ferry Pizza, LLC",
            "city": "North Alpharetta",
            "state": "GA",
            "qty": "1,00",
            "cost": "$250.00",
            "approved": "00/00/00"
        },
        {
            "storeId": "TN-028",
            "storeName": "PizzaWorks V LLC",
            "city": "East Nashville",
            "state": "TN",
            "qty": "1,000",
            "cost": "$2,500.00",
            "approved": "00/00/00"
        },
        {
            "storeId": "GA-005",
            "storeName": "R3K INC.",
            "city": "Johns Creek",
            "state": "GA",
            "qty": "1,000",
            "cost": "$2,500.00",
            "approved": "00/00/00"
        }
    ]
}