{
    "fileTypes": [
        {
            "type": "Select File Type",
            "value": "-1"
        },
        {
            "type": "Circulation Addresses",
            "value": "1"
        },
        {
            "type": "Circulation Projections",
            "value": "2"
        },
        {
            "type": "Service Levels",
            "value": "3"
        },
        {
            "type": "Current Buy",
            "value": "4"
        }
    ],
    "publicationTypes": [
        {
            "type": "Select Publication Type",
            "value": "-1"
        },
        {
            "type": "Home Delivery",
            "value": "1"
        },
        {
            "type": "Single Copy",
            "value": "2"
        },
        {
            "type": "Total Market Coverage (TMC)",
            "value": "3"
        },
        {
            "type": "Hispanic Targeted",
            "value": "4"
        },
        {
            "type": "Sunday Select",
            "value": "5"
        },
        {
            "type": "Select Market Coverage (SMC)",
            "value": "6"
        }
    ],
    "distributionLevels": [
        {
            "type": "Select Distribution Level",
            "value": "-1"
        },
        {
            "type": "Zip",
            "value": "1"
        },
        {
            "type": "Zip/Zone",
            "value": "2"
        },
        {
            "type": "Sub-Zip",
            "value": "3"
        },
        {
            "type": "County",
            "value": "4"
        },
        {
            "type": "None",
            "value": "5"
        }
    ]
}