[
    {
		"Logging":[    
					{"value":"select","name":"Select"},
					{"value":"1","name":"eric 9/30/2014 12:09:37 PM"},
					{"value":"2","name":"eric 9/30/2014 12:30:10 PM"}, 
					{"value":"3","name":"eric 9/30/2014 12:40:34 PM"},
					{"value":"4","name":"eric 9/30/2014 01:36:21 PM"}
				]
	}
]