{
    "bronzePackage": {
        "totalInvest": "$2,057 for the year.",
        "qty": "4,256 pieces for the year at 2,128 pieces per drop - 2x year.",
        "include": "List, print, mail services, postage and drop shipping for 48 cents per piece.",
        "note": "No additional drop splits are allowed for this package."
    },
    "goldPackage": {
        "totalInvest": " $4,000 for the year",
        "qty": "8,889 pieces for the year at 2,963 pieces per drop - 3x year.",
        "include": " List, print, mail services, postage and drop shipping for 45 cents per piece.",
        "note": "You can split up the total quantity into 2 additional mail drops for $190 each additional drop."
    },
    "platinumPackage": {
        "totalInvest": "$6,000 for the year",
        "qty": "14,634 pieces for the year at 4,878 pieces per drop - 3x year.",
        "include": " List, print, mail services, postage and drop shipping for 41 cents per piece.",
        "note": "You can split up the total quantity into 2 additional mail drops for $190 each additional drop."
    }
}