{
	"customText": {
		"1": [{
			"companyInfo": [{
				"label": "First Name",
				"value": "Charles",
				"isRequired": "true",
				"showCheckBox": true
			}, {
				"label": "Last Name",
				"value": "Rizzo",
				"isRequired": "true",
				"showCheckBox": true
			}, {
				"label": "Email",
				"value": "crizzo@aag.com",
				"isRequired": "true",
				"showCheckBox": true
			}, {
				"label": "Event Date",
				"value": "mm/dd/yyyy",
				"isRequired": "true",
				"showCheckBox": true
			}, {
				"label": "Event Time",
				"value": "00:00 am",
				"isRequired": "true",
				"showCheckBox": true
			}, {
				"label": "RSVP by",
				"value": "mm/dd/yyyy",
				"isRequired": "true",
				"showCheckBox": true
			}],
			"customInfo": [{
				"label": "NMSL#",
				"value": "646022",
				"isRequired": "true",
				"showCheckBox": "true"
			}, {
				"label": "Biography",
				"value": "Chuck Rizzo brings passion and commitment to his role as a Reverse Mortgage Professional. With more than 25 years in the real estate and mortgage industry, Chuck is uniquely positioned to help his reverse mortgage clients consider their options. Since entering the reverse mortgage space in 2005, Chuck has earned the reputation as providing exceptional customer service to those he serves.  Chuck grew up in Chicago, he and his wife now live in the Bensenville area, where he is an active member in the community. Chuck currently serves as a Director and Past President of the Bensenville Chamber of Commerce and volunteers for several community charities.",
				"isRequired": "true",
				"showCheckBox": "true"
			}, {
				"label": "Toll-Free Number",
				"value": "",
				"isRequired": "true",
				"showCheckBox": "true"
			}],
			"isEnabled": true,
			"name": "companyInfo"
		}, {
			"companyInfo": [{
				"label": "First Name",
				"value": "Mike",
				"isRequired": "true",
				"showCheckBox": true
			}, {
				"label": "Last Name",
				"value": "Stanley",
				"isRequired": "true",
				"showCheckBox": true
			}, {
				"label": "Email",
				"value": "mstanley@aag.com",
				"isRequired": "true",
				"showCheckBox": true
			}],
			"customInfo": [{
				"label": "NMSL#",
				"value": "",
				"isRequired": "true",
				"showCheckBox": "true"
			}, {
				"label": "Biography",
				"value": "",
				"isRequired": "true",
				"showCheckBox": "true"
			}],
			"isEnabled": true,
			"name": "companyInfo"
		}],
		"2": [{
			"companyInfo": [{
				"label": "First Name",
				"value": "Kevin",
				"isRequired": "true",
				"showCheckBox": true
			}, {
				"label": "Last Name",
				"value": "Stillman",
				"isRequired": "true",
				"showCheckBox": true
			}, {
				"label": "Email",
				"value": "kstillman@aag.com",
				"isRequired": "true",
				"showCheckBox": true
			}, {
				"label": "Event Date",
				"value": "mm/dd/yyyy",
				"isRequired": "true",
				"showCheckBox": true
			}, {
				"label": "Event Time",
				"value": "00:00 am",
				"isRequired": "true",
				"showCheckBox": true
			}, {
				"label": "RSVP by",
				"value": "mm/dd/yyyy",
				"isRequired": "true",
				"showCheckBox": true
			}],
			"customInfo": [{
				"label": "NMSL#",
				"value": "507219",
				"isRequired": "true",
				"showCheckBox": "true"
			}, {
				"label": "Biography",
				"value": "Kevin has over 19 years of lending experience including Commercial, Construction, Consumer, Private Banking and Mortgage Lending. During his seven years in Mortgage Banking, Kevin has assisted hundreds of clients with various programs including Conventional, Jumbo, Government (FHA, VA, IFA and USDA), Construction/Renovation and Reverse Mortgages. Kevin has the experience and knowledge to provide the best financing solutions available to help his clients meet their financial goals with the exceptional service they deserve.  Kevin holds an MBA in Finance from Drake University and a BBA in Finance from Iowa State University. Kevin is a member of the Iowa Mortgage Association's Winner's Circle Club. He resides in Clive with his wife, Cheryl, and his three children and two step-children. He stays involved in their sporting activities and enjoys volunteering for Cub Scouts, Meals from the Heartland, church mission ministries and health related charities.",
				"isRequired": "true",
				"showCheckBox": "true"
			}, {
				"label": "Toll-Free Number",
				"value": "",
				"isRequired": "true",
				"showCheckBox": "true"
			}],
			"isEnabled": true,
			"name": "companyInfo"
		}]
	}
}