{
    "189": {
        "optInAnalysisReport": "<li data-theme=\"c\"><a href=\"#\"data-rel=\"popup\" data-position-to=\"window\" data-inline=\"true\">Opt-in analysis report</a></li>",
        "storeUsageReport": "<li data-theme=\"c\"><a href=\"#\"data-rel=\"popup\" data-position-to=\"window\" data-inline=\"true\">Store usage report</a></li>",
        "templateAnalysisReport": "<li data-theme=\"c\"><a href=\"#\"data-rel=\"popup\" data-position-to=\"window\" data-inline=\"true\">Template analysis report</a></li>",
        "marketCoverageReport": "<li data-theme=\"c\"><a href=\"#\"data-rel=\"popup\" data-position-to=\"window\" data-inline=\"true\">Market coverage report</a></li>",
        "spendUsageByStoreReport": "<li data-theme=\"c\"><a href=\"#\"data-rel=\"popup\" data-position-to=\"window\" data-inline=\"true\">Spend/usage by store report</a></li>"
    },
    "180,6000420": {
        "emailTrackingReport": "<li data-theme=\"c\"><a onclick=\"fnDisplayBbbReports()\" data-rel=\"popup\" data-position-to=\"window\" data-inline=\"true\">Email Tracking Report</a></li>"
    }
}