{
    "180": {
        "div1": "<div data-role=\"collapsible\" data-theme=\"f\" data-content-theme=\"c\" data-collapsed-icon=\"plus\" data-expanded-icon=\"minus\" data-collapsed=\"false\"><h4>Overview</h4><p>By clicking the link in the email we sent you, you've been automatically logged in and authenticated to the Bob's Bait and Beer site within Gizmo. This site is a demo site you can use to familiarize yourself (and your customers) with specific features and capabilities of our Gizmo system.</p></div>",
        "div2": "<div data-role=\"collapsible\" data-theme=\"f\" data-content-theme=\"c\" data-collapsed-icon=\"plus\" data-expanded-icon=\"minus\" data-collapsed=\"true\"><h4>What's Bob's Bait and Beer?</h4><p>Bob's Bait and Beer is a fictitious customer we'll be using throughout our Gizmo demos. Sometimes, Bob's will appear to be a small, single location customer. For other demos, Bob's will appear to be a large, multi-store franchise.</p></div>",
        "div3": "<div data-role=\"collapsible\" data-theme=\"f\" data-content-theme=\"c\" data-collapsed-icon=\"plus\" data-expanded-icon=\"minus\" data-collapsed=\"true\"><h4>Why do I have to download files to use the demo?</h4><p>For most of our customers, we have to handle both list and artwork files of one form or another. This simple first demo shows how a customer, like Bob's Bait and Beer, can upload one or more list and artwork files into our system to enable job processing automation. So, in order to run the demo properly, you need to download files from this demo site, and then re-upload them into the sample job.</p></div>",
        "div4": "<div data-role=\"collapsible\" data-theme=\"f\" data-content-theme=\"c\" data-collapsed-icon=\"plus\" data-expanded-icon=\"minus\" data-collapsed=\"true\"><h4>What's a zip file and how do I unzip it?</h4><p>A .zip file contains one or multiple files that have been compressed into a single file called an Archive. An archive needs to be opened/unzipped with compression software before the files inside can be accessed. You can use one of these methods to unzip the file: </p><ol><li>Double-click the ZIP file. (Windows XP or newer, Mac OS X)</li><li>Right-click the ZIP file and select \"Extract All...\" or \"Extract Here\". (Windows only)</li></ol></div>",
        "div5": "<div data-role=\"collapsible\" data-theme=\"f\" data-content-theme=\"c\" data-collapsed-icon=\"plus\" data-expanded-icon=\"minus\" data-collapsed=\"true\"><h4>Does this mean I can upload any list file, and the system will automatically process it?</h4><p>Not exactly. For different customers, list files are typically formatted differently - and often used for different purposes. Bob's Bait and Beer, for example, uses a common tab-delimited format for list processing. Happily Gizmo can handle multiple file types, and file formats. But to ensure data integrity, we typically match specific file formats to specific customers. For example, Bob's Bait and Beer could have 5 different layout types associated with just source files, while other layout types are associated with do-not-mail or seed files. Again, this is just a safety mechanism for us to ensure proper file processing and audits.</p></div>",
        "div6": "<div data-role=\"collapsible\" data-theme=\"f\" data-content-theme=\"c\" data-collapsed-icon=\"plus\" data-expanded-icon=\"minus\" data-collapsed=\"true\"><h4>Does Gizmo meet all appropriate data security standards?</h4><p>Yup. Files are transferred using appropriate TLS security, and encrypted directly on servers at Conversion Alliance. Access to these servers is restricted to appropriate personnel on a per-customer basis (as managed by the Gizmo system). Files remain on this single secure, encrypted domain throughout a job's processing.</p></div>",
        "div7": "<div data-role=\"collapsible\" data-theme=\"f\" data-content-theme=\"c\" data-collapsed-icon=\"plus\" data-expanded-icon=\"minus\" data-collapsed=\"true\"><h4>What about HIPAA and SOC2?</h4><p>Well, HIPAA and SOC2 require some additional procedures and policies to fall into place - something that will (hopefully) be happening later this year. Still, with the systems in place, we should be well on our way.</p></div>",
        "div8": "<div data-role=\"collapsible\" data-theme=\"f\" data-content-theme=\"c\" data-collapsed-icon=\"plus\" data-expanded-icon=\"minus\" data-collapsed=\"true\"><h4>Where are the maps? What about TribTrack? I thought we could also select our own lists?</h4><p>For this first demo, we're keeping things simple. Just a few options for list and artwork uploads, and an automated system to run out your reports. Maps, TribTrack, list downloads and other Gizmo modules will be addressed in future demos. That's really one of the benefits of Gizmo - we can configure it to leverage just a few modules (as we do here), or many more, depending on the needs of the customer.</p></div>",
        "div9": "<div data-role=\"collapsible\" data-theme=\"f\" data-content-theme=\"c\" data-collapsed-icon=\"plus\" data-expanded-icon=\"minus\" data-collapsed=\"true\"><h4>I've got some suggestions for changes.</h4><p>We'd love to hear them! That's why, every two weeks or so past our demos, we'll be conducting \"Gizmo training and propeller-head\" meetings. Can't wait that long? Please email or call Jim Wright or Charlie Smith.</p></div>"
    },
    "189,155711": {
        "div1": "<div data-role=\"collapsible\" data-theme=\"f\" data-content-theme=\"c\" data-collapsed-icon=\"plus\" data-expanded-icon=\"minus\" data-collapsed=\"false\"><h4>Overview</h4><p>By clicking the link in the email we sent you, you've been automatically logged in and authenticated to the site within Gizmo. This site is a demo site you can use to familiarize yourself (and your customers) with specific features and capabilities of our Gizmo system.</p></div>",
        "div2": "<div data-role=\"collapsible\" data-theme=\"f\" data-content-theme=\"c\" data-collapsed-icon=\"plus\" data-expanded-icon=\"minus\" data-collapsed=\"true\"><h4>Why do I have to download files to use the demo?</h4><p>For most of our customers, we have to handle both list and artwork files of one form or another. This simple first demo shows how a customer can upload one or more list and artwork files into our system to enable job processing automation. So, in order to run the demo properly, you need to download files from this demo site, and then re-upload them into the sample job.</p></div>",
        "div3": "<div data-role=\"collapsible\" data-theme=\"f\" data-content-theme=\"c\" data-collapsed-icon=\"plus\" data-expanded-icon=\"minus\" data-collapsed=\"true\"><h4>Does this mean I can upload any list file, and the system will automatically process it?</h4><p>Not exactly. For different customers, list files are typically formatted differently - and often used for different purposes. Some customers, for example, use a common tab-delimited format for list processing. Happily Gizmo can handle multiple file types, and file formats. But to ensure data integrity, we typically match specific file formats to specific customers. For example, a user could have 5 different layout types associated with just source files, while other layout types are associated with do-not-mail or seed files. Again, this is just a safety mechanism for us to ensure proper file processing and audits.</p></div>",
        "div4": "<div data-role=\"collapsible\" data-theme=\"f\" data-content-theme=\"c\" data-collapsed-icon=\"plus\" data-expanded-icon=\"minus\" data-collapsed=\"true\"><h4>Does Gizmo meet all appropriate data security standards?</h4><p>Yup. Files are transferred using appropriate TLS security, and encrypted directly on servers at Conversion Alliance. Access to these servers is restricted to appropriate personnel on a per-customer basis (as managed by the Gizmo system). Files remain on this single secure, encrypted domain throughout a job's processing.</p></div>",
        "div5": "<div data-role=\"collapsible\" data-theme=\"f\" data-content-theme=\"c\" data-collapsed-icon=\"plus\" data-expanded-icon=\"minus\" data-collapsed=\"true\"><h4>What about HIPAA and SOC2?</h4><p>Well, HIPAA and SOC2 require some additional procedures and policies to fall into place - something that will (hopefully) be happening later this year. Still, with the systems in place, we should be well on our way.</p></div>",
        "div6": "<div data-role=\"collapsible\" data-theme=\"f\" data-content-theme=\"c\" data-collapsed-icon=\"plus\" data-expanded-icon=\"minus\" data-collapsed=\"true\"><h4>Where are the maps? What about TribTrack? I thought we could also select our own lists?</h4><p>For this first demo, we're keeping things simple. Just a few options for list and artwork uploads, and an automated system to run out your reports. Maps, TribTrack, list downloads and other Gizmo modules will be addressed in future demos. That's really one of the benefits of Gizmo - we can configure it to leverage just a few modules (as we do here), or many more, depending on the needs of the customer.</p></div>",
        "div7": "<div data-role=\"collapsible\" data-theme=\"f\" data-content-theme=\"c\" data-collapsed-icon=\"plus\" data-expanded-icon=\"minus\" data-collapsed=\"true\"><h4>I've got some suggestions for changes.</h4><p>We'd love to hear them! That's why, every two weeks or so past our demos, we'll be conducting \"Gizmo training and propeller-head\" meetings. Can't wait that long? Please email or call Jim Wright or Charlie Smith.</p></div>"
    }
}