{
	"index": {
		"180": {
			"dvWelcomeMsg": {
				"hintHeading": "<h2>How does Gizmo work?</h2>",
				"text1": "<p><b>Use the right side navigation links to:</b></p>",
				"list1": "<ul><li>Download and unzip <a href=\"#\" onclick=\"window.open('../images/bbb/artwork/BobsSampleArtFiles.zip');\" target=\"_blank\">art sample files</a>.</li>",
				"list2": "<li>Download and unzip <a href=\"#\" onclick=\"window.open('../images/bbb/list/BobsSampleListFiles.zip');\"  target=\"_blank\">list sample files</a>.</li></ul>",
				"text2": "<p>Once your files are ready to go, click the \"Start a New Job\" link to Build Bob's Bait & Beer Business!</p>",
				"text3": "<p>That's it!</p>",
				"text4": "<p>Don't worry, we'll give you help screens throughout if you get lost.</p>",
				"text5": "<p>Want to know more about what Gizmo does or how it works? Click through the \"About this Demo\" links on this page for more - start with the \"Overview and FAQ\" link if you're completely confused.</p>"
			},
			"introducingGizmo": {
				"hintHeading": "<h3>Introducing Gizmo</h3>",
				"image": "<div><img src=\"images/gizmo_logo_white.png\" alt=\"\" width=\"242\" height=\"86\" /></div>",
				"text1": "<p>Conversion Alliance's automated marketing solution</p>",
				"text2": "<p>In this demo, you'll work to market a fictitious company called \"Bob's Bait and Beer\". Read through the first page to get started.</p>"
			}
		},
		"189": {
			"introducingGizmo": {
				"hintHeading": "<h3>Introducing Gizmo</h3>",
				"image": "<div><img src=\"images/gizmo_logo_white.png\" alt=\"\" width=\"242\" height=\"86\" /></div>",
				"text1": "<p>Conversion Alliance's automated marketing solution</p>",
				"text2": "<p>In this demo, we'll show you how to work with Jet's new marketing automation site. Read through the first page to get started.</p>"
			},
			"dvWelcomeMsg": {
				"hintHeading": "<h2>How does Gizmo work?</h2>",
				"text1": "<p><b>Gizmo allows your store to:</b></p>",
				"list1": "<ul><li>Find and target customers around your store location</li>",
				"list2": "<li>Participate in opt-in marketing programs</li>",
				"list3": "<li>Perform one-off direct marketing actions</li>",
				"list4": "<li>Order printed materials like store menus</li></ul>",
				"text2": "<p>This particular demo walks you through the process of creating an opt-in marketing action through our site.</p>",
				"text3": "<p>Don't worry, we'll give you help screens throughout if you get lost.</p>",
				"text4": "<p>Want to know more about what Gizmo does or how it works? Click through the \"About this Demo\" links on this page for more - start with the \"Overview and FAQ\" link if you're completely confused.</p>"
			}
		},
		"219": {
			"dvWelcomeMsg": {
				"hintHeading": "<h2>How does Gizmo work?</h2>",
				"text1": "<p><b>Use this site to upload your lists for Sports Authority</b></p>"
			}
		},
		"222": {
			"dvWelcomeMsg": {
				"hintHeading": "<h2>How does Gizmo work?</h2>",
				"text1": "<p><b>Use this site to upload your html for Motiv8</b></p>"
			}
		},
		"247": {
			"dvWelcomeMsg": {
				"hintHeading": "<h2>How does Gizmo work?</h2>",
				"text1": "<p><b>Use this site to upload your lists for Acquire Health</b></p>",
				"text2": "<p>For a new list you have, just click the \"Start Upload Process\" link on this page. You'll be prompted to upload your file(s).</p>",
				"text3": "<p>That's it!</p>",
				"text4": "<p>Once your lists have been uploaded, the Gizmo system, will automatically run postal hygiene, address standardization, and postal presort logic on your uploaded list(s). Once these are complete, Gizmo will send you a final report for your review.</p>",
				"text5": "<p>Have problems or questions? Please contact your Conversion Alliance representative.</p>"
			}
		},
		"261": {
			"dvWelcomeMsg": {
				"hintHeading": "<h2>How does Gizmo work?</h2>",
				"text1": "<p><b>Use this site to upload your lists for Safeway</b></p>"
			}
		},
		"262": {
			"dvWelcomeMsg": {
				"hintHeading": "<h2>How does Gizmo work?</h2>",
				"text1": "<p><b>Use this site to upload your lists for Lowe's</b></p>"
			}
		},
		"100334": {
			"dvWelcomeMsg": {
				"hintHeading": "<h2>How does Gizmo work?</h2>",
				"text1": "<p><b>Gizmo allows your store to:</b></p>",
				"list1": "<ul><li>Order a Targeted Mail Program for the Year</li>",
				"list2": "<li>Manage Distributor's Dealer Locations</li>",
				"list3": "<li>Find and Target Customers within a Dealer's Range</li>",
				"list4": "<li>Customize Variable Mailing Templates</li>",
				"list5": "<li>Proof the Actual Mailing Output on the Fly</li></ul>",
				"text2": "<p>Don't worry, we'll give you help screens throughout if you get lost.</p>",
				"text3": "<p>Have problems or questions? Please contact your Conversion Alliance representative.</p>"
			},
			"introducingGizmo": {
				"hintHeading": "<h3>Introducing Gizmo</h3>",
				"image": "<div><img src=\"images/gizmo_logo_white.png\" alt=\"\" width=\"242\" height=\"86\" /></div>",
				"text1": "<p>Conversion Alliance's automated marketing solution</p>",
				"text2": "<p>In this demo, we'll show you how to work with Allied's new marketing automation site. Read through the first page to get started.</p>"
			}
		},
		"100382,279,284": {
			"dvWelcomeMsg": {
				"hintHeading": "<h2>How does Gizmo work?</h2>",
				"text1": "<p><b>Gizmo allows you to:</b></p>",
				"list1": "<ul><li>Setup and manage mailing campaigns</li>",
				"list2": "<li>Find and target customers around your locations</li>",
				"list3": "<li>Upload your artwork to mailing templates</li>",
				"list4": "<li>Proof the actual mailing output on the fly</li></ul>",
				"text2": "<p>Click \"Add New Job\" to get started. Helpful blue hint boxes will guide you through the process until your comfortable on your own.</p>",
				"text3": "<p>Need to check on an existing job? You'll find a list of your Open Jobs on the right. Clicking the job will take you to a job summary, from there you can click \"Edit Job\" to manage or make changes to a job in progress.</p>"
			},
			"introducingGizmo": {
				"hintHeading": "<h3>Welcome to Gizmo</h3>",
				"image": "<div><img src=\"images/gizmo_logo_white.png\" alt=\"\" width=\"242\" height=\"86\" /></div>",
				"text1": "<p>Conversion Alliance's Automated Marketing Solution</p>",
				"text2": "<p>Managing your direct response programs from start to finish through our full service facilities located across the country.</p>",
				"text3": "<p>Version 1.1</p>",
				"text4": "<p>&copy;2019 Conversion Alliance. All rights reserved.</p>"
			}
		},
		"293": {
			"dvWelcomeMsg": {
				"hintHeading": "<h2>How does Gizmo work?</h2>",
				"text1": "<p><b>Gizmo allows you to:</b></p>",
				"list1": "<ul><li>Setup and manage mailing campaigns</li>",
				"list2": "<li>Find and target customers around your locations</li>",
				"list3": "<li>Customize your mailing and offers</li>",
				"list4": "<li>Proof the actual mailing output on the fly</li></ul>",
				"text2": "<p>Click \"Add New Job\" to get started. Helpful blue hint boxes will guide you through the process until your comfortable on your own.</p>",
				"text3": "<p>Need to check on an existing job? You'll find a list of your Open Jobs on the right. Clicking the job will take you to a job summary, from there you can click \"Edit Job\" to manage or make changes to a job in progress.</p>"
			},
			"introducingGizmo": {
				"hintHeading": "<h3>Welcome to Gizmo</h3>",
				"image": "<div><img src=\"images/gizmo_logo_white.png\" alt=\"\" width=\"242\" height=\"86\" /></div>",
				"text1": "<p>Conversion Alliance's Automated Marketing Solution</p>",
				"text2": "<p>Managing your direct response programs from start to finish through our full service facilities located across the country.</p>",
				"text3": "<p>Version 1.1</p>",
				"text4": "<p>&copy;2019 Conversion Alliance. All rights reserved.</p>"
			}
		},
		"123900": {
			"dvWelcomeMsg": {
				"hintHeading": "<h2>How does Gizmo work?</h2>",
				"text1": "<p><b>Use this site to upload your lists for Walgreens</b></p>"
			}
		},
		"153009": {
			"introducingGizmo": {
				"hintHeading": "<h3>Introducing Gizmo</h3>",
				"image": "<div><img src=\"images/gizmo_logo_white.png\" alt=\"\" width=\"242\" height=\"86\" /></div>",
				"text1": "<p>Conversion Alliance's automated marketing solution</p>",
				"text2": "<p>In this demo, we'll show you how to work with Red Plum Inside Shopper's new marketing automation site. Read through the first page to get started.</p>"
			}
		},
		"155370,287": {
			"introducingGizmo": {
				"hintHeading": "<h3>Welcome to Gizmo</h3>",
				"image": "<div><img src=\"images/gizmo_logo_white.png\" alt=\"\" width=\"242\" height=\"86\" /></div>",
				"text1": "<p>Conversion Alliance's Automated Marketing Solution</p>",
				"text2": "<p>Managing your direct response programs from start to finish through our full service facilities located across the country.</p>",
				"text3": "<p>Version 1.1</p>",
				"text4": "<p>&copy;2019 Conversion Alliance. All rights reserved.</p>"
			},
			"dvWelcomeMsg": {
				"hintHeading": "<h2>How does Gizmo work?</h2>",
				"text1": "<p><b>Gizmo allows you to:</b></p>",
				"list1": "<ul><li>Perform one-off direct marketing actions</li>",
				"list2": "<li>Upload your own artwork and customer lists</li>",
				"list3": "<li>Divide tasks between team members</li>",
				"list4": "<li>Manage mailing schedules</li></ul>",
				"text2": "<p>Click \"Add New Job\" to get started. Helpful blue hint boxes will guide you through the process until your comfortable on your own.</p>",
				"text3": "<p>Need to check on an existing job? You'll find a list of your Open Jobs on the right. Clicking the job will take you to a job summary, from there you can click \"Edit Job\" to manage or make changes to a job in progress.</p>",
				"text4": "<p>Have problems or questions? Please contact your Conversion Alliance representative.</p>"
			}
		},
		"155711": {
			"introducingGizmo": {
				"hintHeading": "<h3>Welcome to Gizmo</h3>",
				"image": "<div><img src=\"images/gizmo_logo_white.png\" alt=\"\" width=\"242\" height=\"86\" /></div>",
				"text1": "<p>Conversion Alliance's Automated Marketing Solution</p>",
				"text2": "<p>Managing your direct response programs from start to finish through our full service facilities located across the country.</p>",
				"text3": "<p>Version 1.1</p>",
				"text4": "<p>&copy;2019 Conversion Alliance. All rights reserved.</p>"
			},
			"dvWelcomeMsg": {
				"hintHeading": "<h2>How does Gizmo work?</h2>",
				"text1": "<p><b>Gizmo allows you to:</b></p>",
				"list1": "<ul><li>Setup and manage opt-in marketing programs</li>",
				"list2": "<li>Find and target customers around store locations</li>",
				"list3": "<li>Distribute opt-in and approval emails to select groups</li>",
				"list4": "<li>Perform one-off direct marketing actions</li></ul>",
				"text2": "<p>Click \"Start A New Job\" to get started with a new opt-in job. Helpful blue hint boxes will guide you through the process until your comfortable on your own.</p>",
				"text3": "<p>Need to check on an existing job? You'll find a list of your Open Jobs on the right. Clicking the job will take you to a job summary, from there you can click \"Edit Job\" to manage or make changes to a job in progress.</p>",
				"text4": "<p>Have problems or questions? Please contact your Conversion Alliance representative.</p>"
			}
		},
		"6000420": {
			"introducingGizmo": {
				"hintHeading": "<h3>Welcome to Gizmo</h3>",
				"image": "<div><img src=\"images/gizmo_logo_white.png\" alt=\"\" width=\"242\" height=\"86\" /></div>",
				"text1": "<p>Conversion Alliance's Automated Marketing Solution</p>",
				"text2": "<p>Managing your direct response programs from start to finish through our full service facilities located across the country.</p>",
				"text3": "<p>Version 1.1</p>",
				"text4": "<p>&copy;2019 Conversion Alliance. All rights reserved.</p>"
			},
			"dvWelcomeMsg": {
				"hintHeading": "<h2>How does Gizmo work?</h2>",
				"text1": "<p><b>Use this site to upload your Qualified and Unqualified lists for AAG</b></p>",
				"text2": "<p>For a new list you have, just click the \"Start Upload Process\" link on this page. You'll be prompted to upload your file(s).</p>",
				"text3": "<p>That's it!</p>",
				"text4": "<p>Once your lists have been uploaded, the Gizmo system, will automatically run postal hygiene, address standardization, and postal presort logic on your uploaded list(s). Once these are complete, Gizmo will send you a final report for your review.</p>",
				"text5": "<p>Have problems or questions? Please contact your Conversion Alliance representative.</p>"
			}
		},
		"6000616": {
			"dvWelcomeMsg": {
				"hintHeading": "<h2>How does Gizmo work?</h2>",
				"text1": "<p><b>Use this site to upload your lists for Tribune Publishing</b></p>",
				"text2": "<p>For a new list you have, just click the \"Start Upload Process\" link on this page. You'll be prompted to upload your file(s).</p>",
				"text3": "<p>That's it!</p>",
				"text4": "<p>Once your lists have been uploaded, the Gizmo system, will automatically run postal hygiene, address standardization, and postal presort logic on your uploaded list(s). Once these are complete, Gizmo will send you a final report for your review.</p>",
				"text5": "<p>Have problems or questions? Please contact your Conversion Alliance representative.</p>"
			}
		},
			"6000608": {
			"dvWelcomeMsg": {
				"hintHeading": "<h2>How does Gizmo work?</h2>",
				"text1": "<p><b>Use this site to upload your lists for San Diego Union-Tribune</b></p>",
				"text2": "<p>For a new list you have, just click the \"Start Upload Process\" link on this page. You'll be prompted to upload your file(s).</p>",
				"text3": "<p>That's it!</p>",
				"text4": "<p>Once your lists have been uploaded, the Gizmo system, will automatically run postal hygiene, address standardization, and postal presort logic on your uploaded list(s). Once these are complete, Gizmo will send you a final report for your review.</p>",
				"text5": "<p>Have problems or questions? Please contact your Conversion Alliance representative.</p>"
			}
		}
	},
	"jobSelectTemplate": {
		"155711,155370,287": {
			"welcomePop": {
				"hintHeading": "<h3>Gizmo Hints</h3>",
				"text1": "<p>These helpful blue boxes will pop up to help guide you through the process of creating and submitting a job. Use the \"x\" button in the upper right to close the box, or the \"Hints\" switch at the bottom to toggle all help dialogs on and off.</p>"
			},
			"navHintsPop": {
				"hintHeading": "<h3>Gizmo Module Navigation</h3>",
				"text1": "<p>The lefthand navigation panel houses the Gizmo modules and allows you to navigate through them. The site will guide you through them from top to bottom, but will allow you to move through them freely after completing the Select Template module.</p>"
			},
			"walkthroughStepsPop": {
				"hintHeading": "<h3>Getting Started</h3>",
				"text1": "<ol><li>Enter a unique name in the Job Description field.</li>",
				"text2": "<li>Complete the fields at the top of the screen.</li>",
				"text3": "<li>Select a template.</li>",
				"text4": "<li>Click Continue.</li></ol>"
			}
		},
		"180,189,6000420,219,123900,222,247,100334,6000616,6000608,153009,261,262,279,100382,293,284": {
			"welcomePop": {
				"hintHeading": "<h3>Welcome to Gizmo</h3>",
				"text1": "<p>These helpful blue boxes will pop up to help guide you through the process of creating, and submitting a job. Use the \"x\" button in the upper right to close the box, or the \"Hints\" switch at the bottom to toggle all help dialogs on and off.</p>"
			},
			"navHintsPop": {
				"hintHeading": "<h3>Gizmo Module Navigation</h3>",
				"text1": "<p>The left hand navigation panel houses the Gizmo modules and allows you to navigate through them. The site will guide you through them from top to bottom, but will allow you to move through them freely after completing the Select Template module.</p>"
			},
			"walkthroughStepsPop": {
				"hintHeading": "<h3>Getting Started</h3>",
				"text1": "<ol><li>Complete the fields at the top of the screen.</li>",
				"text2": "<li>Select a template.</li>",
				"text3": "<li>Click Continue.</li></ol>"
			}
		}
	},
	"jobSelectLocations": {
		"155711,155370,6000420": {
			"selectedLocationsPop": {
				"hintHeading": "<h3>Opt-In Locations</h3>",
				"text1": "<p>When an Opt-in template is selected, all of your locations will automatically be dropped into Ordered Locations. This will insure that all locations are sent an Opt-in email. Users that do not opt-in will be dropped from this list later in the process. If you would like to remove a location click the X button to the right of the location.</p>"
			},
			"searchLocationsPop": {
				"hintHeading": "<h3>Adding & Editing Locations</h3>",
				"text1": "<p>To add new locations to the order.</p>",
				"text2": "<p>1. Click Search Existing Locations to open the Search dialog</p>",
				"text3": "<p>2. Click Search & Add A New Location in the Search dialog.</p>",
				"text4": "<p>To edit location profiles, simply click the name of the location. Location profiles may only be revised if they are not part of an order.</p>"
			},
			"groupedLocationsPop": {
				"hintHeading": "<h3>Groups</h3>",
				"text1": "<p>You may save new groups based on the current list of locations or select an existing group to add to an order by clicking the Groups button.</p>",
				"text2": "<h3>Clearing Locations</h3>",
				"text3": "<p>Click the trash icon to clear all of the selected locations from the order.</p>"
			},
			"newLocationsPop": {
				"hintHeading": "<h3>New Locations</h3>",
				"text1": "<p>If you have searched for new locations, they will appear in this list. Clicking the + (add) button will both add the location to your existing locations in the database and directly to Ordered Locations.</p>"
			},
			"locationMapPop": {
				"hintHeading": "<h3>Location Map</h3>",
				"text1": "<p>All of the locations will appear on the locations map color coded to existing, new or ordered locations. Clicking the location markers will allow you to add the location to your store list or the order.</p>"
			}
		},
		"189,100334": {
			"selectedLocationsPop": {
				"hintHeading": "<h3>Opt-In Locations</h3>",
				"text1": "<p>When using an Opt-In template, all of your locations will automatically be dropped into Ordered Locations. This will insure that all locations are sent an Opt-in email. Users that do not opt-in will be dropped from this list later in the process. If you would like to remove a location click the X button to the right of the location. To edit a location click on the name of the location.</p>"
			},
			"searchLocationsPop": {
				"hintHeading": "<h3>Searching for Locations</h3>",
				"text1": "<p>Click Search Existing Locations to find other existing locations or new locations. Since this is an opt-in program all existing locations will already be added. If you want to add a new location, click the \"Search & Add A New Location\" link at the bottom of the search dialog.</p>"
			},
			"newLocationsPop": {
				"hintHeading": "<h3>New Locations</h3>",
				"text1": "<p>If you have searched for new locations, they will appear in this list. Clicking the + (add) button will both add the location to your existing locations in the database and directly to Ordered Locations.</p>"
			},
			"locationMapPop": {
				"hintHeading": "<h3>Location Map</h3>",
				"text1": "<p>All of the locations will appear on the locations map color coded to existing, new or ordered locations. Clicking the location markers will allow you to add the location to your store list or to the order.</p>"
			}
		},
		"100382,279,293,284": {
			"selectedLocationsPop": {
				"hintHeading": "<h3>Opt-In Locations</h3>",
				"text1": "<p>When using an Opt-In template, all of your locations will automatically be dropped into Ordered Locations. This will insure that all locations are sent an Opt-in email. Users that do not opt-in will be dropped from this list later in the process. If you would like to remove a location click the X button to the right of the location. To edit a location click on the name of the location.</p>"
			},
			"searchLocationsPop": {
				"hintHeading": "<h3>Searching for Locations</h3>",
				"text1": "<p>Click Search Existing Locations to find existing locations or new locations. If you want to add a new location, click the \"Search & Add A New Location\" link at the bottom of the search dialog.</p>"
			},
			"newLocationsPop": {
				"hintHeading": "<h3>New Location Results</h3>",
				"text1": "<p>After a list of new locations is returned based on your search criteria, you may select one or more of these locations to add to the order. When you click the add button, a Location Profile will open first to allow you to verify information about that location. Once you've made any changes and added the location, the location will be added to Ordered Locations as part of the current order. It will also be added to your Existing Locations for future orders.</p>"
			},
			"locationMapPop": {
				"hintHeading": "<h3>Location Map</h3>",
				"text1": "<p>All of the locations will appear on the locations map color coded to existing, new or ordered locations. Clicking the markers on the map will allow you to add those locations to your order and save them to your existing locations for your next order.</p>"
			}
		}
	},
	"jobUploadList": {
		"180,6000420,219,123900,247,6000616,6000608,261,262,155370,155711,287": {
			"uploadListDemoHintsPop": {
				"hintHeading": "<h3>Selecting A List</h3>",
				"text1": "<ol><li>Click \"Select List Files\"</li>",
				"text2": "<li>Select the type of list.</li>",
				"text3": "<li>Browse to and select or Drag and Drop your list file into the dialog window.</li>",
				"text4": "<li>Repeat the process for each additional list you have to upload.</li></ol>"
			},
			"uploadSelectedListDemoHintsPop": {
				"hintHeading": "<h3>Uploading Selected Lists</h3>",
				"text1": "<p>Now that you've selected files to upload, simply click the \"Upload Selected Lists\" button to upload all of your lists at once. If you've selected a file you decide you don't want to upload, click the \"X\" button to the right of the file to remove it.</p>",
				"text2": "<p>When your files have finished uploading you will receive a \"Success\" message.</p>"
			}
		},
		"180,6000420,219,123900,247,6000616,6000608,261,262": {
			"uploadedListDemoHintPop": {
				"hintHeading": "<h3>Uploaded Lists</h3>",
				"text1": "<p>Uploaded files will be displayed under a heading based on the \"Type\" of file you designated.</p>",
				"text2": "<p>If you need to remove an uploaded file, you may do so by clicking the \"Delete\" button to the right of the file name.</p>"
			}
		},
		"155370,155711,287": {
			"uploadedListDemoHintPop": {
				"hintHeading": "<h3>Uploaded Lists</h3>",
				"text1": "<p>Uploaded files will be displayed under a heading based on the \"Type\" of file you designated.</p>",
				"text2": "<p>If you need to remove an uploaded file or edit the link to artwork, click the Menu button to the right of the line item and an Action Menu will pop up providing those options.</p>"
			}
		},
		"100382,279,293,284": {
			"uploadingListPop": {
				"hintHeading": "<h3>Uploading a List</h3>",
				"text1": "<ol><li>Click \"Select List Files\"</li>",
				"text2": "<li>Select the List Type</li>",
				"text3": "<li>Select the type of delimiter being used in your delimited list file</li>",
				"text4": "<li>Browse to and select or drag and drop your list file(s) into the dialog window</li>",
				"text5": "<li>Repeat the process for additional list you have to upload</li></ol>"
			}
		}
	},
	"jobUploadArtwork": {
		"180,222,155370,287": {
			"uploadArtDemoHintsPop": {
				"hintHeading": "<h3>Selecting Artwork</h3>",
				"text1": "<ol><li>Click \"Select Artwork Files\"</li>",
				"text2": "<li>Browse to and select or Drag and Drop your artwork file into the dialog window.</li>",
				"text3": "<li>Repeat the process for additional artwork you have to upload.</li></ol>"
			},
			"uploadSelectedArtDemoHintsPop": {
				"hintHeading": "<h3>Uploading Selected Artwork</h3>",
				"text1": "<p>Now that you've selected artwork to upload, simply click the \"Upload Selected Artwork\" button to upload all of your artwork at once. If you've selected a file you decide you don't want to upload, click the \"X\" button to the right of the file to remove it.</p>",
				"text2": "<p>When your files have finished uploading you will receive a \"Success\" message.</p>"
			},
			"uploadedArtDemoHintPop": {
				"hintHeading": "<h3>Uploaded Artwork</h3>",
				"text1": "<p>Uploaded files will be displayed under \"Uploaded Artwork Files\" with information about that file.</p>",
				"text2": "<p>If you need to remove an uploaded file, you may do so by clicking the \"Edit\" button to the right of the file name.</p>",
				"text3": "<p>Clicking the file name will open browser friendly artwork in a pdf viewer.</p>"
			}
		},
		"100382,279,293,284,155711": {
			"uploadArtDemoHintsPop": {
				"hintHeading": "<h3>Selecting Artwork</h3>",
				"text1": "<ol><li>Click \"Select Artwork Files\"</li>",
				"text2": "<li>Assign the Location that the artwork will be used for. Each location in your order will be required to have artwork assigned to it.</li>",
				"text3": "<li>Browse to and select or Drag and Drop your artwork file into the dialog window.</li>",
				"text4": "<li>Repeat the process for additional artwork you have to upload.</li></ol>"
			},
			"uploadSelectedArtDemoHintsPop": {
				"hintHeading": "<h3>Uploading Selected Artwork</h3>",
				"text1": "<p>Now that you've selected artwork to upload, simply click the \"Upload Selected Artwork\" button to upload all of your artwork at once. If you've selected a file you decide you don't want to upload, click the \"X\" button to the right of the file to remove it.</p>",
				"text2": "<p>When your files have finished uploading you will receive a \"Success\" message.</p>"
			},
			"uploadedArtDemoHintPop": {
				"hintHeading": "<h3>Uploaded Artwork</h3>",
				"text1": "<p>Uploaded files will be displayed under \"Uploaded Artwork Files\" with information about that file.</p>",
				"text2": "<p>If you need to change the artwork's location assignment, replace or delete the artwork, click the menu button to the right of the file name.</p>",
				"text3": "<p>Clicking the file name will open browser friendly artwork in a pdf viewer.</p>"
			}
		}
	},
	"jobSubmitOrder": {
		"287": {
			"approveEmailDemoHintsPop": {
				"hintHeading": "<h3>Submitting Your Order</h3>",
				"text1": "<p>After clicking the \"Submit Order\" button to complete your order, wait for a success message to appear before leaving the order.</p>"
			}
		},
		"180,153009,155370": {
			"approveEmailDemoHintsPop": {
				"hintHeading": "<h3>Submitting Your Order</h3>",
				"text1": "<p>When you submit your order, by clicking the \"Submit Order\" button, an email will be sent to the user placing the order. This will include a Job Summary Report and link to the Proofing Module to review your artwork.</p>"
			}
		},
		"6000420,219,123900,247,6000616,6000608,261,262,100382,279,293,284": {
			"approveEmailDemoHintsPop": {
				"hintHeading": "<h3>Submitting Your Order</h3>",
				"text1": "<p>When you submit your order, by clicking the \"Submit Order\" button, an email will be sent to the user placing the order. This will include a Job Summary Report to review.</p>"
			}
		},
		"100382,279,293,284": {
			"approveEmailDemoHintsPop": {
				"hintHeading": "<h3>Submitting Your Order</h3>",
				"text1": "<p>When you submit your order, by clicking the \"Submit Order\" button, you will receive a \"Thank You\" message and email communications will be sent to alert others to proof and approve your order.</p>"
			}
		}
	},
	"jobMilestones": {
		"155711,155370,100382,6000420,279,287,293,284": {
			"milestoneDatePop": {
				"hintHeading": "<h3>Milestone Dates</h3>",
				"text1": "<p>Milestone dates are dates that need to be set to trigger events in the process of an order. Select a date for all Required Milestones.</p>"
			}
		}
	},
	"jobListSelection": {
		"155711,6000420": {
			"storeSelectionPop": {
				"hintHeading": "<h3>List Selection</h3>",
				"text1": "<p>Start by selecting one of the ordered locations from the Store Location drop down menu. This will show you a map of the location and it's surrounding area.</p>"
			},
			"selectionMethodPop": {
				"hintHeading": "<h3>Selection Method</h3>",
				"text1": "<p>The default method is by Radius/Count, selecting households closest to the location. If Targeted Count is selected, enter the desired mailing quantity and the radius will expand to fill that quantity. If Radius is selected, enter the desired radius and a targeted quantity will be calculated based on that radius.</p>",
				"text2": "<p>For advanced users, specific zip codes and carrier routes may be selected using the Zip/Carrier Route method.</p>"
			},
			"postalBoundarySelectionsPop": {
				"hintHeading": "<h3>Postal Boundary Selections</h3>",
				"text1": "<p>This list will show all of the available household counts and which zips and carrier routes they belong to. The zips and carrier routes with checkmarks have at least a portion of their available count selected. Full zips and carrier routes may be selected or deselected by checking or unchecking them.</p>"
			},
			"polygonSelectionPop": {
				"hintHeading": "<h3>Polygon Selection</h3>",
				"text1": "<p>Targets may also be selected by drawing a polygon around a desired area of the map. When \"Polygon\" is selected, three tools will be displayed. The center drawing tool, allows you to draw polygons by placing points on the map. Close the polygon by clicking on the originating point. The left grab tool allows you to move drawn points after clicking on the polygon and the right delete button, deletes a selected polygon.</p>"
			}
		},
		"100382,279,293,284": {
			"storeSelectionPop": {
				"hintHeading": "<h3>List Selection</h3>",
				"text1": "<p>Start by selecting one of the ordered locations from the Store Location drop down menu. This will show you a map of the location and it's surrounding area.</p>"
			},
			"selectionMethodPop": {
				"hintHeading": "<h3>Selection Method</h3>",
				"text1": "<p>The default method is by Radius/Count, selecting households closest to the location. If Targeted Count is selected, enter the desired mailing quantity and the radius will expand to fill that quantity. If Radius is selected, enter the desired radius and a targeted quantity will be calculated based on that radius.</p>",
				"text2": "<p>For advanced users, specific zip codes and carrier routes may be selected using the Zip/Carrier Route method.</p>"
			},
			"postalBoundarySelectionsPop": {
				"hintHeading": "<h3>Postal Boundary Selections</h3>",
				"text1": "<p>This list will show all of the available household counts and which zips and carrier routes they belong to. The zips and carrier routes with checkmarks have at least a portion of their available count selected. Full zips and carrier routes may be selected or deselected by checking or unchecking them.</p>"
			},
			"listControlsPop": {
				"hintHeading": "<h3>List Controls</h3>",
				"text1": "<p>After selecting a location and targets, be sure to Refresh and Save your selections before switching to a new location. If you want to return to the last saved selections for the location you are editing, click Revert.</p>"
			},
			"selectingTargetsPop": {
				"hintHeading": "<h3>Selecting Targets</h3>",
				"text1": "<p>Targets may be selected by Targeted Count, Radius, or Polygon in the Select by Radius/Count section. Use the radio buttons to choose your method of selection. The targeted count will automatically adjust based on a radius selection. In the same way, the radius will adjust to the targeted count."
			},
			"mapPreferencesPop": {
				"hintHeading": "<h3>Map and Map Preferences</h3>",
				"text1": "<p>The Google map will display the area around the selected location. The dark grey area represents the zip codes available for you to select targets from. Blue areas represent areas targets are being selected from. Red outlines indicate radius or polygon borders. Additional map preferences like scatter maps to show you selected households and carrier route borders are available by clicking the Map Preferences button in the upper right navigation bar."
			},
			"carrierRouteSelectionPop": {
				"hintHeading": "<h3>Zip/Carrier Route Selections</h3>",
				"text1": "<p>This type of selection will select targets within an entire zip code or carrier route, which can be selected by toggling open the Postal Boundary Selections. A radius or targeted count will no longer apply to this type of selection.</p>"
			},
			"postalBoundaryPop": {
				"hintHeading": "<h3>Selecting by Postal Boundaries</h3>",
				"text1": "<p>Select entire zip codes by checking the check box next to a zip code under Postal Boundary Selections or toggle the zip code open and select carrier routes within those zip codes."
			},
			"demographicFilterPop": {
				"hintHeading": "<h3>Demographic Filters</h3>",
				"text1": "<p>Demographic filters may be set as defaults (under Selected Demographic Filters) or may be added (under Available Demographic Filters). Specific selections for each demographic filter are available by clicking on the demographic filter. After selecting these filters and clicking Refresh the radius will adjust to meet the targeted count for a Targeted Selection or the targeted count will decrease within a Radius selection."
			},
			"polygonSelectionPop": {
				"hintHeading": "<h3>Polygon Selection</h3>",
				"text1": "<p>Targets may also be selected by drawing a polygon around a desired area of the map. When \"Polygon\" is selected, three tools will be displayed. The center drawing tool, allows you to draw polygons by placing points on the map. Close the polygon by clicking on the originating point. The left grab tool allows you to move drawn points after clicking on the polygon and the right delete button, deletes a selected polygon.</p>"
			}
		}
	},
	"jobOptInStatus": {
		"155711,6000420": {
			"optInOutStatusPop": {
				"hintHeading": "<h3>Opt-Out & Opt-In Status</h3>",
				"text1": "<p>Theses lists provide the status of locations sent an opt-in email during the opt-in period.</p>"
			},
			"pendingApprovedPop": {
				"hintHeading": "<h3>Pending & Approved</h3>",
				"text1": "<p>Once the opt-in period has closed and counts have been assigned, the opted-in locations will move to Pending Locations for approval of counts and cost. Once approval has been submitted the location will move to Approved Locations.</p>"
			},
			"statusSummaryPop": {
				"hintHeading": "<h3>Status Summary</h3>",
				"text1": "<p>The table at the top of the screen provides counts for each of the statuses as they are available.</p>",
				"list1": "<ul><li>Locations - Available locations for a specific opt-in program</li>",
				"list2": "<li>Open - Locations that have not been opted in or out</li>",
				"list3": "<li>Opted In - Locations that have been added to the order but have not had list selections saved</li>",
				"list4": "<li>Opted Out - Locations that have been declined for opt-in</li>",
				"list5": "<li>Pending - Locations that have a saved list selection and are pending approval</li>",
				"list6": "<li>Approved - Locations that have had quantity and cost approved</li></ul>"			
			},
			"searchLocationsPop": {
				"hintHeading": "<h3>Search Locations</h3>",
				"text1": "<p>By default, the lists at the bottom of the page display all of the locations by Status along with markers that correspond with markers on the map. 50 locations are shown at a time and may be paged through using the next and previous buttons at the bottom of each list. A \"Search Locations\" button in the upper right of the screen, may be used to filter these lists by store, geography, opt-in recipient or status. Besides Status, results may also be displayed in lists according to Market Manager or State.</p>"
			}
		}
	},
	"jobPieceAttributes": {
		"100382,155711,155370,6000420,189,100334,279,287,293,284": {
			"pieceAttributesPop": {
				"hintHeading": "<h3>Piece Attributes</h3>",
				"text1": "<p>Piece attributes represent the physical attributes for a templates mail piece and the mailing requirements. In most cases, the physical attributes are preset based on the template and may not be changed.</p>"
			}
		}
	},
	"jobApproval": {
		"100382,279,287,293,284": {
			"markupAnnotationsPop": {
				"hintHeading": "<h3>Markup & Annotations </h3>",
				"text1": "<p>Annotating the proof is easy! Click the \"Comment\" pulldown in the upper left of the screen to see different markup tools. After entering a comment, click out of the comment box for other viewers to see your comments.</p>"
			},
			"viewMultipleProofsPop": {
				"hintHeading": "<h3>Viewing Multiple Proofs</h3>",
				"text1": "<p>If there is more than one proof for you to view, a \"Order Elements\" button will appear in the upper right corner of the screen. It will be red if there are unapproved proofs to view or green if all of the proofs have been approved. Clicking this button will open a list of the proofs in the order. Clicking the name of the artwork will open the proof in the current window and allow you to provide approvals. If you would like to compare one proof to another, click the window icon next to the proof name to open the proof in a new browser tab. You may also download all of the proofs in the order with or without annotations by using the two buttons at the top of the list.</p>"
			},
			"approvalPop": {
				"hintHeading": "<h3>Approval</h3>",
				"text1": "<p>If you are an Approver, you are required to provide your approval before an order can be released to production. The Approval (checkmark icon) button opens a dialog window that allows you to submit an approval status.If there are multiple proofs in the order, approval will need to be provided for each proof separately.</p>"
			},
			"forwardProofPop": {
				"hintHeading": "<h3>Forward Proof</h3>",
				"text1": "<p>Click the Forward Proof (envelope icon) button to email the proof to others as approvers or viewers. Approvers can markup the proof and will also be required to approve the proof before it can be released for production. Viewers can also markup the proofs and view all comments, but they are not required to approve the proof.</p>"
			},
			"approversProofStatusPop": {
				"hintHeading": "<h3>Approvers & Proof Status</h3>",
				"text1": "<p>The Approvers button will open a list of all order elements that require approval by approvers. Each element is listed along with the users assigned as Approvers and the last approval status they have submitted. The overall status of the element is shown as an icon to the left of the element name. Click the info button in the header for a status icon key."
			},
			"historyPop": {
				"hintHeading": "<h3>History</h3>",
				"text1": "<p>A history button will appear only if multiple versions of the same artwork have been uploaded with revisions. History provides a list of all versions listed from the last uploaded version at the top to the oldest version at the bottom. If you would like to compare one proof to another, click the window icon next to the proof name to open the proof in a new browser tab. This may be helpful when checking to make sure all of the revisions asked for in comments have been completed."
			}
		}
	},
	"jobSelectImages": {
		"293,279,284": {
			"selectImagesPop": {
				"hintHeading": "<h3>Select Images</h3>",
				"text1": "<p>Select Images allows you to select or add images for specific areas of your mail piece. </p>",
				"text2": "<ul><li>You can either keep the default image for the area labeled in the header or click the image section below to make a new selection.</li>",
				"text3": "<li>Clicking the Delete button to the right of the image will remove the image completely. In some cases, you will be required to select an image in order to complete the order.</li>",
				"text4": "<li>After making a selection you may click the Preview Mailing button to preview the selected choices in the mail piece.</li></ul></p>"
			}
		}
	},
	"jobImageLibrary": {
		"293,279,284": {
			"imageLibraryPop": {
				"hintHeading": "<h3>Image Library</h3>",
				"text1": "<p>The Image Library contains all available images for a specific area of a mail piece.</p>",
				"text2": "<ul><li>Clicking the image will select the image and navigate you back to the Select Image page</li>",
				"text3": "<li>Clicking the Menu button the right of the image will open a menu of actions to take on the image</li>",
				"list1": "<ul><li>Insert Image into Layout</li>",
				"list2": "<li>Replace Image</li>",
				"list3": "<li>Set as Default Image</li>",
				"list4": "<li>Delete Image from Library</li></ul>",
				"text4": "<li>Upload a new image to your library by clicking the Add New Image button in the upper right</li></ul>"
			}
		}
	},
	"jobCustomText": {
		"293": {
			"customTextPop": {
				"hintHeading": "<h3>Customize Text</h3>",
				"text1": "<p>Allows you to change the text on the mail piece for the specific areas labeled.</p>",
				"text2": "<ol><li>Use the default text provided for the mail piece or enter your own text into the provided text area</li>",
				"text3": "<li>Click the Preview Mailing button to preview the text in the mail piece</li></ol>"
			}
		}
	},
	"jobOfferSetup": {
		"293": {
			"offerSetupPop": {
				"hintHeading": "<h3>Offer Setup</h3>",
				"text1": "<p>Allows you to change the offer on the mail.</p>",
				"text2": "<ul><li>Use the default offer as is or edit parts of the offer</li>",
				"text3": "<li>Select another offer template by checking the radio buttons at the top of the Offer area</li>",
				"text4": "<li>Be sure to check the amount and expiration date</li>",
				"text5": "<li>Click the Preview Mailing button to preview the offer in the mail piece</li></ul>"
			}
		}
	},
	"lmaSetup": {
		"279,284": {
			"lmaSetupPop": {
				"hintHeading": "<h3>LMA Setup</h3>",
				"text1": "<p>Local Market Areas (LMA's) determine where specific store locations are allowed to mail to. When a user selects list targets, they will only be provided targets within the LMA setup for them.</p>",
				"text2": "<p>LMA's have been pre-generated by the site, but should be reviewed and saved by an Admin. State and Locations that have been saved by a user will appear with a green background in the menu.</p>"
			},
			"selectingLMAPop": {
				"hintHeading": "<h3>Selecting a LMA</h3>",
				"text1": "<p>To begin select the State of the location you want to review/edit. Then select the specific Store Location and the Product Group. Once selected a map will be generated to show the counties assigned to the LMA in shades of blue to green and counties assigned to other store's LMA's in grey.</p>",
				"text2": "<p>The navigation on the left will provide detail on the selected store under \"LMA Assignment Overview\" and the available counties under \"Selection By County\". Each county has information on the stores that have assigned zips in that county, along with the Kubota suggested target percentage and the actual assigned percentage.</p>"
			},
			"viewByCountyPop": {
				"hintHeading": "<h3>View By County</h3>",
				"text1": "<p>To view and edit a specific county in a LMA, toggle open one of the counties under the \"Selection By County\" section. The map view will change to just show that specific county. The zip codes assigned to the LMA display in blue and zip codes belonging to other store's LMA's in shades of yellow to red. Each color represents a different store.</p>"
			},
			"selectionByCountyPop": {
				"hintHeading": "<h3>Selection By County</h3>",
				"text1": "<p>When the county is toggled open, the zip codes within the county will be displayed in a checklist. Those assigned to the selected store's LMA will be checked. Check or uncheck zips to alter the LMA. When you check a zip that is assigned to another store, it will be remove the zip from the other store and alter their LMA as well. If you uncheck a zip, it will remain unassigned until you select another store and check the zip for that location.</p>"
			},
			"savingLMAPop": {
				"hintHeading": "<h3>Saving LMA's</h3>",
				"text1": "<p>Whether you have altered the LMA or just reviewed and approved it, click the Save button to Save and Approve the LMA. Now when you open the menu, the location will be marked green to indicate it has already been reviewed and approved."
			}
		}
	}
}