{
    "publicationNamesDict": [
        {
            "versionOrderName": "BESTBUY-03",
			"status":"received",
			"title":"Received",
            "orderedPubs": [
                {
                    "name": "Barrington Courier-Review",
					"status":"received",
					"count":5000,
                    "values": [
                        {
                            "name": "Zones",
                            "value": "1"
                        },
                        {
                            "name": "Version",
                            "value": "a"
                        },
                        {
                            "name": "Description",
                            "value": "Test Desc"
                        },
                        {
                            "name": "Adit ID",
                            "value": "123"
                        }
                    ]
                },
                {
                    "name": "Buffalo Grove Countryside",
					"status":"received",
					"count":5000,
                    "values": [
                        {
                            "name": "Zones",
                            "value": "1"
                        },
                        {
                            "name": "Version",
                            "value": "b"
                        },
                        {
                            "name": "Description",
                            "value": "Test Desc"
                        },
                        {
                            "name": "Adit ID",
                            "value": "123"
                        }
                    ]
                },
                {
                    "name": "Deerfield Review",
					"status":"received",
					"count":5000,
                    "values": [
                        {
                            "name": "Zones",
                            "value": "1"
                        },
                        {
                            "name": "Version",
                            "value": "c"
                        },
                        {
                            "name": "Description",
                            "value": "Test Desc"
                        },
                        {
                            "name": "Adit ID",
                            "value": "123"
                        }
                    ]
                },
                {
                    "name": "The Doings Clarendon Hills",
					"status":"received",
					"count":5000,
                    "values": [
                        {
                            "name": "Zones",
                            "value": "1"
                        },
                        {
                            "name": "Version",
                            "value": "a"
                        },
                        {
                            "name": "Description",
                            "value": "Test Desc"
                        },
                        {
                            "name": "Adit ID",
                            "value": "123"
                        }
                    ]
                },
                {
                    "name": "The Doings Hinsdale",
					"status":"received",
					"count":5000,
                    "values": [
                        {
                            "name": "Zones",
                            "value": "4"
                        },
                        {
                            "name": "Version",
                            "value": "a"
                        },
                        {
                            "name": "Description",
                            "value": "Test Desc"
                        },
                        {
                            "name": "Adit ID",
                            "value": "123"
                        }
                    ]
                }
            ],
            "attributes": [
                {
                    "name": "Ref#",
                    "value": "12142014_113200"
                },
                {
                    "name": "Transaction Code",
                    "value": "A"
                },
                {
                    "name": "Credit Flag",
                    "value": "C"
                },
                {
                    "name": "Credit Flag",
                    "value": "C"
                },
                {
                    "name": "Acct #",
                    "value": "100152701"
                },
                {
                    "name": "Agency",
                    "value": "STMG"
                },
                {
                    "name": "Issue Date",
                    "value": "12/14/2014"
                },
                {
                    "name": "Product",
                    "value": "BESTBUY-03"
                },
                {
                    "name": "Desc",
                    "value": "ABN BEST BUY V25"
                },
                {
                    "name": "Pg Type",
                    "value": "T"
                },
                {
                    "name": "Pg Count",
                    "value": "24"
                },
                {
                    "name": "Wgt",
                    "value": "0"
                },
                {
                    "name": "Qty",
                    "value": "9519"
                }
            ]
        },
        {
            "versionOrderName": "BIG LOTS-01",
			"status":"received",
			"title":"Received",
            "orderedPubs": [
                {
                    "name": "Barrington Courier-Review",
					"status":"received",
					"count":5000,
                    "values": [
                        {
                            "name": "Zones",
                            "value": "4"
                        },
                        {
                            "name": "Version",
                            "value": "b"
                        },
                        {
                            "name": "Description",
                            "value": "Test Desc"
                        },
                        {
                            "name": "Adit ID",
                            "value": "123"
                        }
                    ]
                },
                {
                    "name": "Buffalo Grove Countryside",
					"status":"received",
					"count":5000,
                    "values": [
                        {
                            "name": "Zones",
                            "value": "4"
                        },
                        {
                            "name": "Version",
                            "value": "a"
                        },
                        {
                            "name": "Description",
                            "value": "Test Desc"
                        },
                        {
                            "name": "Adit ID",
                            "value": "123"
                        }
                    ]
                },
                {
                    "name": "Deerfield Review",
					"status":"received",
					"count":5000,
                    "values": [
                        {
                            "name": "Zones",
                            "value": "4"
                        },
                        {
                            "name": "Version",
                            "value": "a"
                        },
                        {
                            "name": "Description",
                            "value": "Test Desc"
                        },
                        {
                            "name": "Adit ID",
                            "value": "123"
                        }
                    ]
                },
                {
                    "name": "The Doings Clarendon Hills",
					"status":"received",
					"count":5000,
                    "values": [
                        {
                            "name": "Zones",
                            "value": "4"
                        },
                        {
                            "name": "Version",
                            "value": "a"
                        },
                        {
                            "name": "Description",
                            "value": "Test Desc"
                        },
                        {
                            "name": "Adit ID",
                            "value": "123"
                        }
                    ]
                },
                {
                    "name": "The Doings Hinsdale",
					"status":"received",
					"count":5000,
                    "values": [
                        {
                            "name": "Zones",
                            "value": "4"
                        },
                        {
                            "name": "Version",
                            "value": "a"
                        },
                        {
                            "name": "Description",
                            "value": "Test Desc"
                        },
                        {
                            "name": "Adit ID",
                            "value": "123"
                        }
                    ]
                }
            ],
            "attributes": [
                {
                    "name": "Ref#",
                    "value": "12142014_113200"
                },
                {
                    "name": "Transaction Code",
                    "value": "A"
                },
                {
                    "name": "Credit Flag",
                    "value": "C"
                },
                {
                    "name": "Credit Flag",
                    "value": "C"
                },
                {
                    "name": "Acct #",
                    "value": "100152701"
                },
                {
                    "name": "Agency",
                    "value": "STMG"
                },
                {
                    "name": "Issue Date",
                    "value": "12/14/2014"
                },
                {
                    "name": "Product",
                    "value": "BESTBUY-03"
                },
                {
                    "name": "Desc",
                    "value": "ABN BEST BUY V25"
                },
                {
                    "name": "Pg Type",
                    "value": "T"
                },
                {
                    "name": "Pg Count",
                    "value": "24"
                },
                {
                    "name": "Wgt",
                    "value": "0"
                },
                {
                    "name": "Qty",
                    "value": "9519"
                }
            ]
        },
        {
            "versionOrderName": "CARSONS-05",
			"status":"not-received",
			"title":"Not Received",
            "orderedPubs": [
                {
                    "name": "Barrington Courier-Review",
					"status":"not-received",
					"count":5000,
                    "values": [
                        {
                            "name": "Zones",
                            "value": "4"
                        },
                        {
                            "name": "Version",
                            "value": "a"
                        },
                        {
                            "name": "Description",
                            "value": "Test Desc"
                        },
                        {
                            "name": "Adit ID",
                            "value": "123"
                        }
                    ]
                },
                {
                    "name": "Buffalo Grove Countryside",
					"status":"not-received",
					"count":5000,
                    "values": [
                        {
                            "name": "Zones",
                            "value": "4"
                        },
                        {
                            "name": "Version",
                            "value": "a"
                        },
                        {
                            "name": "Description",
                            "value": "Test Desc"
                        },
                        {
                            "name": "Adit ID",
                            "value": "123"
                        }
                    ]
                },
                {
                    "name": "Deerfield Review",
					"status":"not-received",
					"count":5000,
                    "values": [
                        {
                            "name": "Zones",
                            "value": "4"
                        },
                        {
                            "name": "Version",
                            "value": "a"
                        },
                        {
                            "name": "Description",
                            "value": "Test Desc"
                        },
                        {
                            "name": "Adit ID",
                            "value": "123"
                        }
                    ]
                },
                {
                    "name": "The Doings Clarendon Hills",
					"status":"not-received",
					"count":5000,
                    "values": [
                        {
                            "name": "Zones",
                            "value": "4"
                        },
                        {
                            "name": "Version",
                            "value": "a"
                        },
                        {
                            "name": "Description",
                            "value": "Test Desc"
                        },
                        {
                            "name": "Adit ID",
                            "value": "123"
                        }
                    ]
                },
                {
                    "name": "The Doings Hinsdale",
					"status":"not-received",
					"count":5000,
                    "values": [
                        {
                            "name": "Zones",
                            "value": "4"
                        },
                        {
                            "name": "Version",
                            "value": "a"
                        },
                        {
                            "name": "Description",
                            "value": "Test Desc"
                        },
                        {
                            "name": "Adit ID",
                            "value": "123"
                        }
                    ]
                }
            ],
            "attributes": [
                {
                    "name": "Ref#",
                    "value": "12142014_113200"
                },
                {
                    "name": "Transaction Code",
                    "value": "A"
                },
                {
                    "name": "Credit Flag",
                    "value": "C"
                },
                {
                    "name": "Credit Flag",
                    "value": "C"
                },
                {
                    "name": "Acct #",
                    "value": "100152701"
                },
                {
                    "name": "Agency",
                    "value": "STMG"
                },
                {
                    "name": "Issue Date",
                    "value": "12/14/2014"
                },
                {
                    "name": "Product",
                    "value": "BESTBUY-03"
                },
                {
                    "name": "Desc",
                    "value": "ABN BEST BUY V25"
                },
                {
                    "name": "Pg Type",
                    "value": "T"
                },
                {
                    "name": "Pg Count",
                    "value": "24"
                },
                {
                    "name": "Wgt",
                    "value": "0"
                },
                {
                    "name": "Qty",
                    "value": "9519"
                }
            ]
        },
        {
            "versionOrderName": "DICKSSPORT-03",
			"status":"partially-received",
			"title":"Partially Received",
            "orderedPubs": [
                {
                    "name": "Barrington Courier-Review",
					"status":"partially-received",
					"count":5000,
                    "values": [
                        {
                            "name": "Zones",
                            "value": "4"
                        },
                        {
                            "name": "Version",
                            "value": "a"
                        },
                        {
                            "name": "Description",
                            "value": "Test Desc"
                        },
                        {
                            "name": "Adit ID",
                            "value": "123"
                        }
                    ]
                },
                {
                    "name": "Buffalo Grove Countryside",
					"status":"partially-received",
					"count":5000,
                    "values": [
                        {
                            "name": "Zones",
                            "value": "4"
                        },
                        {
                            "name": "Version",
                            "value": "a"
                        },
                        {
                            "name": "Description",
                            "value": "Test Desc"
                        },
                        {
                            "name": "Adit ID",
                            "value": "123"
                        }
                    ]
                },
                {
                    "name": "Deerfield Review",
					"status":"partially-received",
					"count":5000,
                    "values": [
                        {
                            "name": "Zones",
                            "value": "4"
                        },
                        {
                            "name": "Version",
                            "value": "a"
                        },
                        {
                            "name": "Description",
                            "value": "Test Desc"
                        },
                        {
                            "name": "Adit ID",
                            "value": "123"
                        }
                    ]
                },
                {
                    "name": "The Doings Clarendon Hills",
					"status":"partially-received",
					"count":5000,
                    "values": [
                        {
                            "name": "Zones",
                            "value": "4"
                        },
                        {
                            "name": "Version",
                            "value": "a"
                        },
                        {
                            "name": "Description",
                            "value": "Test Desc"
                        },
                        {
                            "name": "Adit ID",
                            "value": "123"
                        }
                    ]
                },
                {
                    "name": "The Doings Hinsdale",
					"status":"partially-received",
					"count":5000,
                    "values": [
                        {
                            "name": "Zones",
                            "value": "4"
                        },
                        {
                            "name": "Version",
                            "value": "a"
                        },
                        {
                            "name": "Description",
                            "value": "Test Desc"
                        },
                        {
                            "name": "Adit ID",
                            "value": "123"
                        }
                    ]
                }
            ],
            "attributes": [
                {
                    "name": "Ref#",
                    "value": "12142014_113200"
                },
                {
                    "name": "Transaction Code",
                    "value": "A"
                },
                {
                    "name": "Credit Flag",
                    "value": "C"
                },
                {
                    "name": "Credit Flag",
                    "value": "C"
                },
                {
                    "name": "Acct #",
                    "value": "100152701"
                },
                {
                    "name": "Agency",
                    "value": "STMG"
                },
                {
                    "name": "Issue Date",
                    "value": "12/14/2014"
                },
                {
                    "name": "Product",
                    "value": "BESTBUY-03"
                },
                {
                    "name": "Desc",
                    "value": "ABN BEST BUY V25"
                },
                {
                    "name": "Pg Type",
                    "value": "T"
                },
                {
                    "name": "Pg Count",
                    "value": "24"
                },
                {
                    "name": "Wgt",
                    "value": "0"
                },
                {
                    "name": "Qty",
                    "value": "9519"
                }
            ]
        },
        {
            "versionOrderName": "CVS-05",
			"status":"killed",
			"title":"Killed",
            "orderedPubs": [
                {
                    "name": "Barrington Courier-Review",
					"status":"killed",
					"count":5000,
                    "values": [
                        {
                            "name": "Zones",
                            "value": "4"
                        },
                        {
                            "name": "Version",
                            "value": "a"
                        },
                        {
                            "name": "Description",
                            "value": "Test Desc"
                        },
                        {
                            "name": "Adit ID",
                            "value": "123"
                        }
                    ]
                },
                {
                    "name": "Buffalo Grove Countryside",
					"status":"killed",
					"count":5000,
                    "values": [
                        {
                            "name": "Zones",
                            "value": "4"
                        },
                        {
                            "name": "Version",
                            "value": "a"
                        },
                        {
                            "name": "Description",
                            "value": "Test Desc"
                        },
                        {
                            "name": "Adit ID",
                            "value": "123"
                        }
                    ]
                },
                {
                    "name": "Deerfield Review",
					"status":"killed",
					"count":5000,
                    "values": [
                        {
                            "name": "Zones",
                            "value": "4"
                        },
                        {
                            "name": "Version",
                            "value": "a"
                        },
                        {
                            "name": "Description",
                            "value": "Test Desc"
                        },
                        {
                            "name": "Adit ID",
                            "value": "123"
                        }
                    ]
                },
                {
                    "name": "The Doings Clarendon Hills",
					"status":"killed",
					"count":5000,
                    "values": [
                        {
                            "name": "Zones",
                            "value": "4"
                        },
                        {
                            "name": "Version",
                            "value": "a"
                        },
                        {
                            "name": "Description",
                            "value": "Test Desc"
                        },
                        {
                            "name": "Adit ID",
                            "value": "123"
                        }
                    ]
                },
                {
                    "name": "The Doings Hinsdale",
					"status":"killed",
					"count":5000,
                    "values": [
                        {
                            "name": "Zones",
                            "value": "4"
                        },
                        {
                            "name": "Version",
                            "value": "a"
                        },
                        {
                            "name": "Description",
                            "value": "Test Desc"
                        },
                        {
                            "name": "Adit ID",
                            "value": "123"
                        }
                    ]
                }
            ],
            "attributes": [
                {
                    "name": "Ref#",
                    "value": "12142014_113200"
                },
                {
                    "name": "Transaction Code",
                    "value": "A"
                },
                {
                    "name": "Credit Flag",
                    "value": "C"
                },
                {
                    "name": "Credit Flag",
                    "value": "C"
                },
                {
                    "name": "Acct #",
                    "value": "100152701"
                },
                {
                    "name": "Agency",
                    "value": "STMG"
                },
                {
                    "name": "Issue Date",
                    "value": "12/14/2014"
                },
                {
                    "name": "Product",
                    "value": "BESTBUY-03"
                },
                {
                    "name": "Desc",
                    "value": "ABN BEST BUY V25"
                },
                {
                    "name": "Pg Type",
                    "value": "T"
                },
                {
                    "name": "Pg Count",
                    "value": "24"
                },
                {
                    "name": "Wgt",
                    "value": "0"
                },
                {
                    "name": "Qty",
                    "value": "9519"
                }
            ]
        }
    ]
}