{
    "jobInfo": {
        "jobDescription": "STR43008 September Mailer",
        "customer": "Camping World",
        "jobNumber": "410601(-13177)",
        "estimatedQuantity": "1500",
		"actualQuantity":"900",
        "mailDate": "8/28/2015",
        "inHome": "9/3/2015",
        "size": "6x9"
    },
    "paymentInfoList": [{
        "postageReceivedPretty": "$10.00",
        "billingReceivedPretty": "$15.00",
        "billingCheck": 153256,
        "postageCheck": 861321,
		"postageDate": "9/3/2015",
		"billingDate": "10/3/2015"
    }],
    "purchaseOrderInfo": {}
}