{
    "jobInfo": {
        "customer": "Camping World",
        "jobNumber": "410700",
		"jobDescription":"Camping World - Aggregate",
        "totalMailedQty": "1500",
        "totalCost": "000.00",
        "remainingBalance": "000.00"
    },
    "aggregatedJobs": [
        {
            "jobNumber": "-13177",
            "jobName": "STR43008 September Mailer",
            "paymentInfoList": [
                {
                    "postageReceivedPretty": "$10.00",
                    "billingReceivedPretty": "$15.00",
                    "billingCheck": 153256,
                    "postageCheck": 861321,
					"postageDate": "9/3/2015",
					"billingDate": "10/3/2015"
                }
            ]
        },
        {
            "jobNumber": "-16394",
            "jobName": "BUF42981 - BILL FOR 5K PROSPECTS!",
            "paymentInfoList": [
                {
                    "postageReceivedPretty": "$10.00",
                    "billingReceivedPretty": "$15.00",
                    "billingCheck": 153256,
                    "postageCheck": 861321,
					"postageDate": "9/3/2015",
					"billingDate": "10/3/2015"
                }
            ]
        },
        {
            "jobNumber": "-16397",
            "jobName": "ANA42427 September Mailer",
            "paymentInfoList": [
                {
                    "postageReceivedPretty": "$10.00",
                    "billingReceivedPretty": "$15.00",
                    "billingCheck": 153256,
                    "postageCheck": 861321,
					"postageDate": "9/3/2015",
					"billingDate": "10/3/2015"
                }
            ]
        }
    ],
    "aggregateInfo": 
        {
            "paymentInfoList": [
                {
                    "postageReceivedPretty": "$10.00",
                    "billingReceivedPretty": "$15.00",
                    "billingCheck": 153256,
                    "postageCheck": 861321,
					"postageDate": "9/3/2015",
					"billingDate": "10/3/2015"
                }
            ]
        }
    
}