[
    {
        "Job Description": "STR43008 September Mailer",
        "Job Number": "410601 (-13177)",
        "Mail": "8/28/2015",
        "In Home": "9/3/2015",
        "Postage": "Open",
        "Invoice": "Open",
		"Estimated Qty": "1000",
		"Actual Qty": "998",
		"Customer Number":"155370",
		"isAggregate":"false"
    },
    {
        "Job Description": "Camping World - Aggregate",
        "Job Number": "410700",
        "Created": "8/29/2015",
        "Postage": "Open",
        "Invoice": "Open",
		"Customer Number":"155370",
		"isAggregate":"true"
    },
    {
        "Job Description": "ANA42427 September Mailer",
        "Job Number": "410603 (-16397)",
        "Mail": "8/28/2015",
        "In Home": "9/3/2015",
        "Postage": "Open",
        "Invoice": "Open",
		"Estimated Qty": "1000",
		"Actual Qty": "998",
		"Customer Number":"155370",
		"isAggregate":"false"
    },
    {
        "Job Description": "Camping World - Aggregate",
        "Job Number": "410703",
        "Created": "8/31/2015",
        "Postage": "Open",
        "Invoice": "Open",
		"Customer Number":"155370",
		"isAggregate":"true"
    },
    {
        "Job Description": "LOW38948 September Mailer",
        "Job Number": "410603 (-16396)",
        "Mail": "8/16/2015",
        "In Home": "9/3/2015",
        "Postage": "Open",
        "Invoice": "Open",
		"Estimated Qty": "1000",
		"Actual Qty": "998",
		"Customer Number":"155370",
		"isAggregate":"false"
    }
]