{
    "companyInfo": [
        {
            "label": "Company Name",
            "value": "",
            "isRequired": "true",
            "showCheckBox": true
        },
        {
            "label": "Street Address",
            "value": "",
            "isRequired": "true",
            "showCheckBox": true
        },
        {
            "label": "City",
            "value": "",
            "isRequired": "true",
            "showCheckBox": true
        },
        {
            "label": "State",
            "value": "",
            "isRequired": "true",
            "showCheckBox": true
        },
        {
            "label": "Zip",
            "value": "",
            "isRequired": "true",
            "showCheckBox": true
        },
        {
            "label": "Business Phone",
            "value": "",
            "isRequired": "true",
            "showCheckBox": true
        }
    ],
    "customInfo": [
		{
            "label": "Website Address",
            "value": "",
            "isRequired": "true",
            "showCheckBox": "true"
        },
        {
            "label": "License Number",
            "value": "",
            "isRequired": "true",
            "showCheckBox": "true"
        },
		    {
            "label": "Dealer Tracking No. (Dealer Use Only)",
            "value": "",
            "isRequired": "true",
            "showCheckBox": "true"
        },
		{
            "label": "Disclaimer or Additional Text",
            "value": "",
            "isRequired": "true",
            "showCheckBox": "true"
        }
    ]
}